koalas
…
Updating the model

To update the model for one or more day, use the update method with
given number of days:

model$update(21)

You can then extract the results so far as data frame:

model$results_wide
#> # A tibble: 22 × 19
#>     Year   Day     S       V     I          N        R      Af       Cf       Sf
#>    <dbl> <dbl> <dbl>   <dbl> <dbl>      <dbl>    <dbl>   <dbl>    <dbl>    <dbl>
#>  1     0     0  299  0        1    0          0        0        0       0       
#>  2     0     1  299. 0.00828  1.00 0.00000966 0.000316 0.00540  1.85e-5 0       
#>  3     0     2  299. 0.0165   1.00 0.0000193  0.000631 0.0108   7.55e-5 4.74e-10
#>  4     0     3  299. 0.0248   1.01 0.0000289  0.000947 0.0161   1.71e-4 1.89e- 9
#>  5     0     4  300. 0.0330   1.01 0.0000384  0.00126  0.0214   3.04e-4 4.73e- 9
#>  6     0     5  300. 0.0411   1.01 0.0000479  0.00158  0.0267   4.74e-4 9.45e- 9
#>  7     0     6  300. 0.0493   1.01 0.0000574  0.00189  0.0319   6.82e-4 1.65e- 8
#>  8     0     7  300. 0.0574   1.02 0.0000668  0.00220  0.0371   9.27e-4 2.64e- 8
#>  9     0     8  300. 0.0655   1.02 0.0000762  0.00252  0.0423   1.21e-3 3.96e- 8
#> 10     0     9  300. 0.0736   1.02 0.0000856  0.00283  0.0475   1.53e-3 5.65e- 8
#> # ℹ 12 more rows
#> # ℹ 9 more variables: Vf <dbl>, If <dbl>, Nf <dbl>, Rf <dbl>, SumTx <dbl>,
#> #   SumVx <dbl>, SumRx <dbl>, SumMx <dbl>, Z <dbl>

When you want to apply an active intervention, use the
active_intervention method with specified number of animals to
test/treat/vaccinate:

model$active_intervention(number=150)

You can then run for another period of time and re-extract
results:

model$update(21)
model$results_wide
#> # A tibble: 43 × 19
#>     Year   Day     S       V     I          N        R      Af       Cf       Sf
#>    <dbl> <dbl> <dbl>   <dbl> <dbl>      <dbl>    <dbl>   <dbl>    <dbl>    <dbl>
#>  1     0     0  299  0        1    0          0        0        0       0       
#>  2     0     1  299. 0.00828  1.00 0.00000966 0.000316 0.00540  1.85e-5 0       
#>  3     0     2  299. 0.0165   1.00 0.0000193  0.000631 0.0108   7.55e-5 4.74e-10
#>  4     0     3  299. 0.0248   1.01 0.0000289  0.000947 0.0161   1.71e-4 1.89e- 9
#>  5     0     4  300. 0.0330   1.01 0.0000384  0.00126  0.0214   3.04e-4 4.73e- 9
#>  6     0     5  300. 0.0411   1.01 0.0000479  0.00158  0.0267   4.74e-4 9.45e- 9
#>  7     0     6  300. 0.0493   1.01 0.0000574  0.00189  0.0319   6.82e-4 1.65e- 8
#>  8     0     7  300. 0.0574   1.02 0.0000668  0.00220  0.0371   9.27e-4 2.64e- 8
#>  9     0     8  300. 0.0655   1.02 0.0000762  0.00252  0.0423   1.21e-3 3.96e- 8
#> 10     0     9  300. 0.0736   1.02 0.0000856  0.00283  0.0475   1.53e-3 5.65e- 8
#> # ℹ 33 more rows
#> # ℹ 9 more variables: Vf <dbl>, If <dbl>, Nf <dbl>, Rf <dbl>, SumTx <dbl>,
#> #   SumVx <dbl>, SumRx <dbl>, SumMx <dbl>, Z <dbl>
…
You can also extract aggregated results in a format more suitable for
plotting:

model$results_long
#> # A tibble: 36 × 4
#>       Year   Sum Compartment Koalas
#>      <dbl> <dbl> <fct>        <dbl>
#>  1 0        258. Total       258.  
#>  2 0        258. Healthy     252.  
#>  3 0        258. Infectious    5.28
#>  4 0        258. Diseased      2.11
#>  5 0        258. Infertile     2.11
#>  6 0        258. Immune        0   
#>  7 0.00274  258. Total       258.  
#>  8 0.00274  258. Healthy     252.  
#>  9 0.00274  258. Infectious    5.32
#> 10 0.00274  258. Diseased      2.13
#> # ℹ 26 more rows
…
model$results_wide |>
  select(Year:Rf) |>
  mutate(Year = Year + Day/365, Total = rowSums(across(-c(Year, Day)))) |>
  mutate(Healthy=S+V+N+R, Infectious=I+If+Af+Cf, Diseased=Af+Cf, Infertile=Sf+Vf+Nf+Rf+If+Diseased, Immune=V+Vf+R+Rf) |>
  select(Year, Total, Healthy:Immune) |>
  pivot_longer(Total:Immune, names_to="Compartment", values_to="Koalas")
#> # A tibble: 36 × 3
#>       Year Compartment Koalas
#>      <dbl> <chr>        <dbl>
#>  1 0       Total       258.  
#>  2 0       Healthy     252.  
#>  3 0       Infectious    5.28
#>  4 0       Diseased      2.11
#>  5 0       Infertile     2.11
#>  6 0       Immune        0   
#>  7 0.00274 Total       258.  
#>  8 0.00274 Healthy     252.  
#>  9 0.00274 Infectious    5.32
#> 10 0.00274 Diseased      2.13
#> # ℹ 26 more rows
…
